…
```
## ── Conflicts ───────────────────────────────────────────────────────────────────────────────────────────────── tidyverse_conflicts() ──
## ✖ dplyr::filter() masks stats::filter()
## ✖ dplyr::lag()    masks stats::lag()
```

## Mammals Sleep
For this assignment, we are going to use built-in data on mammal sleep patterns.  

```r
msleep
```

```
## # A tibble: 83 x 11
##    name  genus vore  order conservation sleep_total sleep_rem sleep_cycle
##    <chr> <chr> <chr> <chr> <chr>              <dbl>     <dbl>       <dbl>
##  1 Chee… Acin… carni Carn… lc                  12.1      NA        NA    
##  2 Owl … Aotus omni  Prim… <NA>                17         1.8      NA    
##  3 Moun… Aplo… herbi Rode… nt                  14.4       2.4      NA    
##  4 Grea… Blar… omni  Sori… lc                  14.9       2.3       0.133
##  5 Cow   Bos   herbi Arti… domesticated         4         0.7       0.667
##  6 Thre… Brad… herbi Pilo… <NA>                14.4       2.2       0.767
##  7 Nort… Call… carni Carn… vu                   8.7       1.4       0.383
##  8 Vesp… Calo… <NA>  Rode… <NA>                 7        NA        NA    
##  9 Dog   Canis carni Carn… domesticated        10.1       2.9       0.333
## 10 Roe … Capr… herbi Arti… lc                   3        NA        NA    
## # … with 73 more rows, and 3 more variables: awake <dbl>, brainwt <dbl>,
## #   bodywt <dbl>
```
…
3. Make a new data frame focused on body weight, but be sure to indicate the common name and genus of each mammal. Sort the data in descending order by body weight.


```r
msleep %>% 
  select(name, genus, bodywt) %>% 
  arrange(desc(bodywt))
```

```
## # A tibble: 83 x 3
##    name                 genus         bodywt
##    <chr>                <chr>          <dbl>
##  1 African elephant     Loxodonta      6654 
##  2 Asian elephant       Elephas        2547 
##  3 Giraffe              Giraffa         900.
##  4 Pilot whale          Globicephalus   800 
##  5 Cow                  Bos             600 
##  6 Horse                Equus           521 
##  7 Brazilian tapir      Tapirus         208.
##  8 Donkey               Equus           187 
##  9 Bottle-nosed dolphin Tursiops        173.
## 10 Tiger                Panthera        163.
## # … with 73 more rows
```



4. We are interested in two groups; small and large mammals. Let's define small as less than or equal to 1kg body weight and large as greater than or equal to 200kg body weight. For our study, we are interested in body weight and sleep total Make two new dataframes (large and small) based on these parameters. Sort the data in descending order by body weight.

```r
large<-msleep%>%
  select(name,bodywt,sleep_total)%>% 
  filter(bodywt<=1) %>% 
  arrange(desc(bodywt))
large
```

```
## # A tibble: 36 x 3
##    name                      bodywt sleep_total
##    <chr>                      <dbl>       <dbl>
##  1 African giant pouched rat  1             8.3
##  2 Arctic ground squirrel     0.92         16.6
##  3 Tenrec                     0.9          15.6
##  4 European hedgehog          0.77         10.1
##  5 Squirrel monkey            0.743         9.6
##  6 Guinea pig                 0.728         9.4
##  7 Desert hedgehog            0.55         10.3
##  8 Owl monkey                 0.48         17  
##  9 Chinchilla                 0.42         12.5
## 10 Thick-tailed opposum       0.37         19.4
## # … with 26 more rows
```
…
5. Let's try to figure out if large mammals sleep, on average, longer than small mammals. What is the average sleep duration for large mammals as we have defined them?

```r
#mean(large$sleep_total)
msleep%>%
  select(sleep_total)
```

```
## # A tibble: 83 x 1
##    sleep_total
##          <dbl>
##  1        12.1
##  2        17  
##  3        14.4
##  4        14.9
##  5         4  
##  6        14.4
##  7         8.7
##  8         7  
##  9        10.1
## 10         3  
## # … with 73 more rows
```
…
